<svg width="184" height="410" viewBox="0 0 184 410" fill="none" xmlns="http://www.w3.org/2000/svg">
<path d="M299.17 299.17C249.229 349.112 193.436 383.712 143.622 399.294C93.7835 414.885 50.0734 411.405 24.1059 385.437C-1.86165 359.47 -5.34175 315.76 10.2489 265.921C25.8315 216.108 60.4311 160.315 110.373 110.373C160.315 60.4311 216.108 25.8315 265.921 10.2488C315.76 -5.34178 359.47 -1.86169 385.437 24.1059C411.405 50.0734 414.885 93.7835 399.294 143.622C383.712 193.436 349.112 249.229 299.17 299.17Z" stroke="#737373"/>
</svg>
